⬛⬜⬜⬛⬛⬛⬜⬜⬛⬛
⬜⬜⬛⬛⬜⬜⬛⬜⬛⬜
⬜⬜⬜⬜⬜⬜⬜⬜⬛⬜
⬛⬜⬜⬛⬛⬛⬛⬛⬜⬜
⬛⬜⬜⬛⬛⬛⬜⬛⬜⬜
⬛⬜⬜⬛⬛⬛⬛⬜⬜⬛
⬛⬜⬜⬜⬜⬜⬛⬜⬜⬜
⬜⬜⬜⬛⬜⬜⬛⬜⬜⬛
⬜⬜⬜⬛⬜⬜⬜⬜⬛⬛
⬜⬛⬜⬛⬜⬜⬜⬜⬜⬜



input
piece1
piece2
piece3
board

output
piece1 x
piece1 y
piece2 x
piece2 y
piece3 x
piece3 y
