{
	"info": {
		"_postman_id": "3e0df330-73cc-4a20-a005-f3a64a6a23ea",
		"name": "ludwig",
		"schema": "https://schema.getpostman.com/json/collection/v2.1.0/collection.json"
	},
	"item": [
		{
			"name": "index",
			"request": {
				"method": "GET",
				"header": [],
				"body": {
					"mode": "raw",
					"raw": ""
				},
				"url": {
					"raw": "http://localhost:3030",
					"protocol": "http",
					"host": [
						"localhost"
					],
					"port": "3030"
				}
			},
			"response": []
		},
		{
			"name": "predict",
			"request": {
				"method": "POST",
				"header": [
					{
						"key": "Content-Type",
						"name": "Content-Type",
						"value": "application/json",
						"type": "text"
					}
				],
				"body": {
					"mode": "raw",
					"raw": "{\n\t\"model_name\": \"experiment_run_0\",\n\t\"data\": [\n {\n   \"column_0\": 0,\n   \"column_1\": 0,\n   \"column_2\": 0,\n   \"column_3\": 0,\n   \"column_4\": 0,\n   \"column_5\": 0,\n   \"column_6\": 0,\n   \"column_7\": 0,\n   \"column_8\": 0,\n   \"column_9\": 0,\n   \"column_10\": 0,\n   \"column_11\": 0,\n   \"column_12\": 0,\n   \"column_13\": 0,\n   \"column_14\": 0,\n   \"column_15\": 0,\n   \"column_16\": 0,\n   \"column_17\": 0,\n   \"column_18\": 0,\n   \"column_19\": 0,\n   \"column_20\": 0,\n   \"column_21\": 0,\n   \"column_22\": 0,\n   \"column_23\": 0,\n   \"column_24\": 0,\n   \"column_25\": 0,\n   \"column_26\": 0,\n   \"column_27\": 0,\n   \"column_28\": 0,\n   \"column_29\": 0,\n   \"column_30\": 0,\n   \"column_31\": 0,\n   \"column_32\": 0,\n   \"column_33\": 0,\n   \"column_34\": 0,\n   \"column_35\": 0,\n   \"column_36\": 0,\n   \"column_37\": 0,\n   \"column_38\": 0,\n   \"column_39\": 0,\n   \"column_40\": 0,\n   \"column_41\": 0,\n   \"column_42\": 0,\n   \"column_43\": 0,\n   \"column_44\": 0,\n   \"column_45\": 0,\n   \"column_46\": 0,\n   \"column_47\": 0,\n   \"column_48\": 0,\n   \"column_49\": 0,\n   \"column_50\": 0,\n   \"column_51\": 0,\n   \"column_52\": 0,\n   \"column_53\": 0,\n   \"column_54\": 0,\n   \"column_55\": 0,\n   \"column_56\": 0,\n   \"column_57\": 0,\n   \"column_58\": 0,\n   \"column_59\": 0,\n   \"column_60\": 0,\n   \"column_61\": 0,\n   \"column_62\": 0,\n   \"column_63\": 0,\n   \"column_64\": 0,\n   \"column_65\": 0,\n   \"column_66\": 0,\n   \"column_67\": 0,\n   \"column_68\": 0,\n   \"column_69\": 0,\n   \"column_70\": 0,\n   \"column_71\": 0,\n   \"column_72\": 0,\n   \"column_73\": 0,\n   \"column_74\": 0,\n   \"column_75\": 0,\n   \"column_76\": 0,\n   \"column_77\": 0,\n   \"column_78\": 0,\n   \"column_79\": 0,\n   \"column_80\": 0,\n   \"column_81\": 0,\n   \"column_82\": 0,\n   \"column_83\": 0,\n   \"column_84\": 0,\n   \"column_85\": 0,\n   \"column_86\": 0,\n   \"column_87\": 0,\n   \"column_88\": 0,\n   \"column_89\": 0,\n   \"column_90\": 0,\n   \"column_91\": 0,\n   \"column_92\": 0,\n   \"column_93\": 0,\n   \"column_94\": 0,\n   \"column_95\": 0,\n   \"column_96\": 0,\n   \"column_97\": 0,\n   \"column_98\": 0,\n   \"column_99\": 0,\n   \"score\": \"\"\n }\n]\n}"
				},
				"url": {
					"raw": "http://localhost:3030/predict",
					"protocol": "http",
					"host": [
						"localhost"
					],
					"port": "3030",
					"path": [
						"predict"
					]
				}
			},
			"response": []
		}
	]
}